{
  "files": {
    "static/js/0.7a8d7e79.chunk.js": "/winifi/static/js/0.7a8d7e79.chunk.js",
    "static/js/0.7a8d7e79.chunk.js.map": "/winifi/static/js/0.7a8d7e79.chunk.js.map",
    "static/js/1.737bed5b.chunk.js": "/winifi/static/js/1.737bed5b.chunk.js",
    "static/js/1.737bed5b.chunk.js.map": "/winifi/static/js/1.737bed5b.chunk.js.map",
    "static/js/2.49e26258.chunk.js": "/winifi/static/js/2.49e26258.chunk.js",
    "static/js/2.49e26258.chunk.js.map": "/winifi/static/js/2.49e26258.chunk.js.map",
    "static/css/3.e10332d9.chunk.css": "/winifi/static/css/3.e10332d9.chunk.css",
    "static/js/3.bdbbbe59.chunk.js": "/winifi/static/js/3.bdbbbe59.chunk.js",
    "static/js/3.bdbbbe59.chunk.js.map": "/winifi/static/js/3.bdbbbe59.chunk.js.map",
    "static/js/4.0e0a15cd.chunk.js": "/winifi/static/js/4.0e0a15cd.chunk.js",
    "static/js/4.0e0a15cd.chunk.js.map": "/winifi/static/js/4.0e0a15cd.chunk.js.map",
    "static/css/5.43badcbc.chunk.css": "/winifi/static/css/5.43badcbc.chunk.css",
    "static/js/5.dc2cbf07.chunk.js": "/winifi/static/js/5.dc2cbf07.chunk.js",
    "static/js/5.dc2cbf07.chunk.js.map": "/winifi/static/js/5.dc2cbf07.chunk.js.map",
    "static/css/6.5f32a6e4.chunk.css": "/winifi/static/css/6.5f32a6e4.chunk.css",
    "static/js/6.ce9f49f5.chunk.js": "/winifi/static/js/6.ce9f49f5.chunk.js",
    "static/js/6.ce9f49f5.chunk.js.map": "/winifi/static/js/6.ce9f49f5.chunk.js.map",
    "main.css": "/winifi/static/css/main.1b08ab06.chunk.css",
    "main.js": "/winifi/static/js/main.ca90841a.chunk.js",
    "main.js.map": "/winifi/static/js/main.ca90841a.chunk.js.map",
    "runtime~main.js": "/winifi/static/js/runtime~main.0649bf62.js",
    "runtime~main.js.map": "/winifi/static/js/runtime~main.0649bf62.js.map",
    "static/css/9.7c63719f.chunk.css": "/winifi/static/css/9.7c63719f.chunk.css",
    "static/js/9.817d5e41.chunk.js": "/winifi/static/js/9.817d5e41.chunk.js",
    "static/js/9.817d5e41.chunk.js.map": "/winifi/static/js/9.817d5e41.chunk.js.map",
    "static/css/10.4c339ee1.chunk.css": "/winifi/static/css/10.4c339ee1.chunk.css",
    "static/js/10.7f81223a.chunk.js": "/winifi/static/js/10.7f81223a.chunk.js",
    "static/js/10.7f81223a.chunk.js.map": "/winifi/static/js/10.7f81223a.chunk.js.map",
    "static/css/11.d8c07a00.chunk.css": "/winifi/static/css/11.d8c07a00.chunk.css",
    "static/js/11.7775ee38.chunk.js": "/winifi/static/js/11.7775ee38.chunk.js",
    "static/js/11.7775ee38.chunk.js.map": "/winifi/static/js/11.7775ee38.chunk.js.map",
    "static/js/12.6a2c76c9.chunk.js": "/winifi/static/js/12.6a2c76c9.chunk.js",
    "static/js/12.6a2c76c9.chunk.js.map": "/winifi/static/js/12.6a2c76c9.chunk.js.map",
    "static/css/13.94bc8085.chunk.css": "/winifi/static/css/13.94bc8085.chunk.css",
    "static/js/13.eefc15e8.chunk.js": "/winifi/static/js/13.eefc15e8.chunk.js",
    "static/js/13.eefc15e8.chunk.js.map": "/winifi/static/js/13.eefc15e8.chunk.js.map",
    "static/css/14.8bc66d36.chunk.css": "/winifi/static/css/14.8bc66d36.chunk.css",
    "static/js/14.a8a24493.chunk.js": "/winifi/static/js/14.a8a24493.chunk.js",
    "static/js/14.a8a24493.chunk.js.map": "/winifi/static/js/14.a8a24493.chunk.js.map",
    "static/css/15.838fb118.chunk.css": "/winifi/static/css/15.838fb118.chunk.css",
    "static/js/15.1cc809e2.chunk.js": "/winifi/static/js/15.1cc809e2.chunk.js",
    "static/js/15.1cc809e2.chunk.js.map": "/winifi/static/js/15.1cc809e2.chunk.js.map",
    "static/js/16.195f414c.chunk.js": "/winifi/static/js/16.195f414c.chunk.js",
    "static/js/16.195f414c.chunk.js.map": "/winifi/static/js/16.195f414c.chunk.js.map",
    "static/js/17.c1ebc55d.chunk.js": "/winifi/static/js/17.c1ebc55d.chunk.js",
    "static/js/17.c1ebc55d.chunk.js.map": "/winifi/static/js/17.c1ebc55d.chunk.js.map",
    "static/css/18.9a4311a4.chunk.css": "/winifi/static/css/18.9a4311a4.chunk.css",
    "static/js/18.7c34d48f.chunk.js": "/winifi/static/js/18.7c34d48f.chunk.js",
    "static/js/18.7c34d48f.chunk.js.map": "/winifi/static/js/18.7c34d48f.chunk.js.map",
    "static/js/19.365113c6.chunk.js": "/winifi/static/js/19.365113c6.chunk.js",
    "static/js/19.365113c6.chunk.js.map": "/winifi/static/js/19.365113c6.chunk.js.map",
    "static/js/20.96644d75.chunk.js": "/winifi/static/js/20.96644d75.chunk.js",
    "static/js/20.96644d75.chunk.js.map": "/winifi/static/js/20.96644d75.chunk.js.map",
    "static/js/21.962a71d5.chunk.js": "/winifi/static/js/21.962a71d5.chunk.js",
    "static/js/21.962a71d5.chunk.js.map": "/winifi/static/js/21.962a71d5.chunk.js.map",
    "static/js/22.b46e2933.chunk.js": "/winifi/static/js/22.b46e2933.chunk.js",
    "static/js/22.b46e2933.chunk.js.map": "/winifi/static/js/22.b46e2933.chunk.js.map",
    "static/js/23.0598ee0e.chunk.js": "/winifi/static/js/23.0598ee0e.chunk.js",
    "static/js/23.0598ee0e.chunk.js.map": "/winifi/static/js/23.0598ee0e.chunk.js.map",
    "static/js/24.9c090b2c.chunk.js": "/winifi/static/js/24.9c090b2c.chunk.js",
    "static/js/24.9c090b2c.chunk.js.map": "/winifi/static/js/24.9c090b2c.chunk.js.map",
    "static/js/25.17ba8469.chunk.js": "/winifi/static/js/25.17ba8469.chunk.js",
    "static/js/25.17ba8469.chunk.js.map": "/winifi/static/js/25.17ba8469.chunk.js.map",
    "static/css/26.43badcbc.chunk.css": "/winifi/static/css/26.43badcbc.chunk.css",
    "static/js/26.6df34e23.chunk.js": "/winifi/static/js/26.6df34e23.chunk.js",
    "static/js/26.6df34e23.chunk.js.map": "/winifi/static/js/26.6df34e23.chunk.js.map",
    "static/js/27.cf93ac5c.chunk.js": "/winifi/static/js/27.cf93ac5c.chunk.js",
    "static/js/27.cf93ac5c.chunk.js.map": "/winifi/static/js/27.cf93ac5c.chunk.js.map",
    "static/js/28.c54ab14f.chunk.js": "/winifi/static/js/28.c54ab14f.chunk.js",
    "static/js/28.c54ab14f.chunk.js.map": "/winifi/static/js/28.c54ab14f.chunk.js.map",
    "static/js/29.15ab7d1d.chunk.js": "/winifi/static/js/29.15ab7d1d.chunk.js",
    "static/js/29.15ab7d1d.chunk.js.map": "/winifi/static/js/29.15ab7d1d.chunk.js.map",
    "static/js/30.3e07bbfa.chunk.js": "/winifi/static/js/30.3e07bbfa.chunk.js",
    "static/js/30.3e07bbfa.chunk.js.map": "/winifi/static/js/30.3e07bbfa.chunk.js.map",
    "static/js/31.8c15fb08.chunk.js": "/winifi/static/js/31.8c15fb08.chunk.js",
    "static/js/31.8c15fb08.chunk.js.map": "/winifi/static/js/31.8c15fb08.chunk.js.map",
    "static/js/32.e3a066b6.chunk.js": "/winifi/static/js/32.e3a066b6.chunk.js",
    "static/js/32.e3a066b6.chunk.js.map": "/winifi/static/js/32.e3a066b6.chunk.js.map",
    "static/js/33.50fcb3f4.chunk.js": "/winifi/static/js/33.50fcb3f4.chunk.js",
    "static/js/33.50fcb3f4.chunk.js.map": "/winifi/static/js/33.50fcb3f4.chunk.js.map",
    "static/js/34.dc5b2f47.chunk.js": "/winifi/static/js/34.dc5b2f47.chunk.js",
    "static/js/34.dc5b2f47.chunk.js.map": "/winifi/static/js/34.dc5b2f47.chunk.js.map",
    "static/js/35.b316d7cb.chunk.js": "/winifi/static/js/35.b316d7cb.chunk.js",
    "static/js/35.b316d7cb.chunk.js.map": "/winifi/static/js/35.b316d7cb.chunk.js.map",
    "index.html": "/winifi/index.html",
    "precache-manifest.f3d18a00c7c1ce8ed71fb99dd0665465.js": "/winifi/precache-manifest.f3d18a00c7c1ce8ed71fb99dd0665465.js",
    "service-worker.js": "/winifi/service-worker.js",
    "static/css/10.4c339ee1.chunk.css.map": "/winifi/static/css/10.4c339ee1.chunk.css.map",
    "static/css/11.d8c07a00.chunk.css.map": "/winifi/static/css/11.d8c07a00.chunk.css.map",
    "static/css/13.94bc8085.chunk.css.map": "/winifi/static/css/13.94bc8085.chunk.css.map",
    "static/css/14.8bc66d36.chunk.css.map": "/winifi/static/css/14.8bc66d36.chunk.css.map",
    "static/css/15.838fb118.chunk.css.map": "/winifi/static/css/15.838fb118.chunk.css.map",
    "static/css/18.9a4311a4.chunk.css.map": "/winifi/static/css/18.9a4311a4.chunk.css.map",
    "static/css/26.43badcbc.chunk.css.map": "/winifi/static/css/26.43badcbc.chunk.css.map",
    "static/css/3.e10332d9.chunk.css.map": "/winifi/static/css/3.e10332d9.chunk.css.map",
    "static/css/5.43badcbc.chunk.css.map": "/winifi/static/css/5.43badcbc.chunk.css.map",
    "static/css/6.5f32a6e4.chunk.css.map": "/winifi/static/css/6.5f32a6e4.chunk.css.map",
    "static/css/9.7c63719f.chunk.css.map": "/winifi/static/css/9.7c63719f.chunk.css.map",
    "static/css/main.1b08ab06.chunk.css.map": "/winifi/static/css/main.1b08ab06.chunk.css.map",
    "static/media/font-awesome.scss": "/winifi/static/media/fontawesome-webfont.fee66e71.woff",
    "static/media/loading.gif": "/winifi/static/media/loading.cffa9d9d.gif",
    "static/media/logo.webp": "/winifi/static/media/logo.9588d22b.webp"
  }
}